…
``` r
baby_df <- baby_df %>%
  clean_names() %>%
  mutate(gender = tolower(gender), ethnicity = tolower(ethnicity), 
        childs_first_name = tolower(childs_first_name)) %>%
  mutate(ethnicity = ifelse(ethnicity == "asian and paci" | ethnicity == "asian and pacific islander", "asian and pacific islander", ifelse(ethnicity == "white non hispanic" | ethnicity == "white non hisp", "white non hispanic", ifelse(ethnicity == "black non hispanic" | ethnicity == "black non hisp", "black non hispanic", ethnicity)))) %>%
  distinct(childs_first_name, gender, year_of_birth, ethnicity, .keep_all = TRUE)

baby_df %>%
  filter(childs_first_name == "olivia")
```

    ## # A tibble: 24 × 6
    ##    year_of_birth gender ethnicity                  childs_first_name count  rank
    ##            <dbl> <chr>  <chr>                      <chr>             <dbl> <dbl>
    ##  1          2016 female asian and pacific islander olivia              172     1
    ##  2          2016 female black non hispanic         olivia               49     8
    ##  3          2016 female hispanic                   olivia              108    13
    ##  4          2016 female white non hispanic         olivia              230     1
    ##  5          2015 female asian and pacific islander olivia              188     1
    ##  6          2015 female black non hispanic         olivia               82     4
    ##  7          2015 female hispanic                   olivia               94    16
    ##  8          2015 female white non hispanic         olivia              225     1
    ##  9          2014 female asian and pacific islander olivia              141     1
    ## 10          2014 female black non hispanic         olivia               52     8
    ## # … with 14 more rows
…
